<?xml version="1.0" encoding="utf-16"?>
<ArrayOfAirDropSettings xmlns:xsd="http://www.w3.org/2001/XMLSchema" xmlns:xsi="http://www.w3.org/2001/XMLSchema-instance">
  <AirDropSettings>
    <Ownership>-1</Ownership>
    <Builder>-1</Builder>
    <MinTriggerIntervalInSeconds>1800</MinTriggerIntervalInSeconds>
    <MaxTriggerIntervalInSeconds>3600</MaxTriggerIntervalInSeconds>
    <MinFirstTriggerDelayInSeconds>1200</MinFirstTriggerDelayInSeconds>
    <MaxFirstTriggerDelayInSeconds>2400</MaxFirstTriggerDelayInSeconds>
    <BeforeSpawnDelayInSeconds>300</BeforeSpawnDelayInSeconds>
    <AfterSpawnDelayInSeconds>300</AfterSpawnDelayInSeconds>
	
    <Gps>
      <GPSName>CASTLE_BOT</GPSName>
      <GPSColor>
        <PackedValue>4278190335</PackedValue>
        <X>255</X>
        <Y>0</Y>
        <Z>0</Z>
        <R>255</R>
        <G>0</G>
        <B>0</B>
        <A>255</A>
      </GPSColor>
    </Gps>
    <Prefabs>
      <AirDropVariant>
        <Prefab>XD</Prefab>
        <Chance>0.5</Chance>
        <SpawnCoordinates>
			<VoxelsCheckExtraDistance>1</VoxelsCheckExtraDistance>
			<MinAirDensity>-9999</MinAirDensity>
			<MaxAirDensity>9999</MaxAirDensity>
			<MinSafezoneDistance>3000</MinSafezoneDistance>
			<OffsetIntoGravity>-50</OffsetIntoGravity>
			<CanSpawnOnPlanets>true</CanSpawnOnPlanets>
			<CanSpawnInSpace>false</CanSpawnInSpace>
			<MaxPlayerRadius>10</MaxPlayerRadius>
			<MinPlayerDistance>0</MinPlayerDistance>
			<Places>
				<Planets>
				  <string>Teal</string>
				</Planets>
				<SpawnPoints>
				  <SpawnPoint>
					<Center>
					  <X>-1370553</X>
					  <Y>-173000</Y>
					  <Z>-427000</Z>
					</Center>
					<Radius>3000</Radius>
				  </SpawnPoint>
				</SpawnPoints>
			</Places>
		</SpawnCoordinates>
        <SpecificLoot>
          <LootGroup>
            <Chance>0.2</Chance>
            <Loot>
              <LootVariant>
                <Id>Ore/Uranium</Id>
                <Min>1111</Min>
                <Max>2222</Max>
              </LootVariant>
            </Loot>
          </LootGroup>
        </SpecificLoot>
      </AirDropVariant>
    </Prefabs>
    <Loot>
      <LootGroup>
        <Chance>0.2</Chance>
        <Loot>
          <LootVariant>
            <Id>Ore/Ice</Id>
            <Min>10000</Min>
            <Max>100000</Max>
          </LootVariant>
          <LootVariant>
            <Id>Ore/Iron</Id>
            <Min>666</Min>
            <Max>999</Max>
          </LootVariant>
        </Loot>
      </LootGroup>
    </Loot>
  </AirDropSettings>
</ArrayOfAirDropSettings>